#-----------------------------------------------------------
# Webtalk v2020.2 (64-bit)
# SW Build 3064766 on Wed Nov 18 09:12:45 MST 2020
# IP Build 3064653 on Wed Nov 18 14:17:31 MST 2020
# Start of session at: Mon May 31 08:41:13 2021
# Process ID: 15516
# Current directory: C:/Users/82108/Documents/vivado/term01/term01.sim/sim_1/behav/xsim
# Command line: wbtcv.exe -mode batch -source C:/Users/82108/Documents/vivado/term01/term01.sim/sim_1/behav/xsim/xsim.dir/top_tb_behav/webtalk/xsim_webtalk.tcl -notrace
# Log file: C:/Users/82108/Documents/vivado/term01/term01.sim/sim_1/behav/xsim/webtalk.log
# Journal file: C:/Users/82108/Documents/vivado/term01/term01.sim/sim_1/behav/xsim\webtalk.jou
#-----------------------------------------------------------
source C:/Users/82108/Documents/vivado/term01/term01.sim/sim_1/behav/xsim/xsim.dir/top_tb_behav/webtalk/xsim_webtalk.tcl -notrace
INFO: [Common 17-186] 'C:/Users/82108/Documents/vivado/term01/term01.sim/sim_1/behav/xsim/xsim.dir/top_tb_behav/webtalk/usage_statistics_ext_xsim.xml' has been successfully sent to Xilinx on Mon May 31 08:41:18 2021. For additional details about this file, please refer to the WebTalk help file at C:/Xilinx/Vivado/2020.2/doc/webtalk_introduction.html.
webtalk_transmit: Time (s): cpu = 00:00:00 ; elapsed = 00:00:05 . Memory (MB): peak = 98.906 ; gain = 0.000
INFO: [Common 17-206] Exiting Webtalk at Mon May 31 08:41:18 2021...
